…
    ## `summarise()` has grouped output by 'year', 'month', 'day'. You can override using the `.groups` argument.

    ## `summarise()` has grouped output by 'hour'. You can override using the `.groups` argument.

``` r
flight_weather
```

    ## # A tibble: 38 × 3
    ## # Groups:   hour [19]
    ##     hour strong_wind arr_delay
    ##    <dbl> <fct>           <dbl>
    ##  1     5 0               -5.02
    ##  2     5 1                2   
    ##  3     6 0               -3.51
    ##  4     6 1               13.9 
    ##  5     7 0               -5.57
    ##  6     7 1               12.3 
    ##  7     8 0               -1.17
    ##  8     8 1               27.1 
    ##  9     9 0               -1.15
    ## 10     9 1                4.38
    ## # … with 28 more rows
…
    ## `summarise()` has grouped output by 'hour'. You can override using the `.groups` argument.

``` r
airline_delay
```

    ## # A tibble: 29 × 3
    ## # Groups:   hour [14]
    ##    hour  name                        arr_delay
    ##    <fct> <chr>                           <dbl>
    ##  1 6     AirTran Airways Corporation    13.6  
    ##  2 7     AirTran Airways Corporation    -0.889
    ##  3 7     Frontier Airlines Inc.        -22    
    ##  4 8     AirTran Airways Corporation     5.74 
    ##  5 8     Frontier Airlines Inc.          6.84 
    ##  6 9     AirTran Airways Corporation    10.1  
    ##  7 10    AirTran Airways Corporation     9.20 
    ##  8 10    Mesa Airlines Inc.            166    
    ##  9 11    AirTran Airways Corporation     9.20 
    ## 10 11    Mesa Airlines Inc.            -10.2  
    ## # … with 19 more rows
…
