…
`17` planes are traded between airlines.

#### 3a. Plane’s average speed.

Notice that `flights$air_time` is in minutes. Make a new column that is
the air time in hours.

``` r
# put your answer here.  
flights %>%
  mutate(air_time_h = air_time/60) %>%
  select(air_time,air_time_h)
```

    ## # A tibble: 336,776 × 2
    ##    air_time air_time_h
    ##       <dbl>      <dbl>
    ##  1      227      3.78 
    ##  2      227      3.78 
    ##  3      160      2.67 
    ##  4      183      3.05 
    ##  5      116      1.93 
    ##  6      150      2.5  
    ##  7      158      2.63 
    ##  8       53      0.883
    ##  9      140      2.33 
    ## 10      138      2.3  
    ## # … with 336,766 more rows
…
``` r
# put answer here
flights %>%
  filter(!is.na(dest)) %>%
  group_by(carrier, dest) %>% 
  summarise(n = n()) %>%
  pivot_wider(names_from = carrier, values_from = n, values_fill = 0)
```

    ## `summarise()` has grouped output by 'carrier'. You can override using the `.groups` argument.

    ## # A tibble: 105 × 17
    ##    dest   `9E`    AA    AS    B6    DL    EV    F9    FL    HA    MQ    OO    UA
    ##    <chr> <int> <int> <int> <int> <int> <int> <int> <int> <int> <int> <int> <int>
    ##  1 ATL      59     0     0     0 10571  1764     0  2337     0  2322     0   103
    ##  2 AUS       2   365     0   747   357     0     0     0     0     0     0   670
    ##  3 AVL      10     0     0     0     0   265     0     0     0     0     0     0
    ##  4 BGR       1     0     0     0     0   374     0     0     0     0     0     0
    ##  5 BNA     474     0     0     0     1  2170     0     0     0  2404     0     0
    ##  6 BOS     914  1455     0  4383   972   159     0     0     0     0     0  3342
    ##  7 BTV       2     0     0  1364     0  1223     0     0     0     0     0     0
    ##  8 BUF     833     0     0  2803     3  1042     0     0     0     0     0     0
    ##  9 BWI     856     0     0     0     0   352     0     0     0   365     0     0
    ## 10 CAE       3     0     0     0     0   113     0     0     0     0     0     0
    ## # … with 95 more rows, and 4 more variables: US <int>, VX <int>, WN <int>,
    ## #   YV <int>
